{
    "name" : "maphysSparseSolverPlugin",
    "concept":  "dtkSparseSolver",
    "layerVersion" : "1.2.0",
    "version" : "1.2.0",
    "matrix" : ["dtkDistributedSparseMatrixEngineDD"],
    "vector" : ["dtkDistributedVectorData"],
    "dependencies" : []
}
